%YAML 1.1
%TAG !u! tag:unity3d.com,2011:
--- !u!1 &2849475821137394112
GameObject:
  m_ObjectHideFlags: 0
  m_CorrespondingSourceObject: {fileID: 0}
  m_PrefabInstance: {fileID: 0}
  m_PrefabAsset: {fileID: 0}
  serializedVersion: 6
  m_Component:
  - component: {fileID: 2849475821137394126}
  - component: {fileID: 2849475821137394127}
  - component: {fileID: 3532131798456347819}
  - component: {fileID: 7259175983031283389}
  - component: {fileID: 1299751003993500984}
  m_Layer: 0
  m_Name: EnemyDestroyer1
  m_TagString: Untagged
  m_Icon: {fileID: 0}
  m_NavMeshLayer: 0
  m_StaticEditorFlags: 0
  m_IsActive: 1
--- !u!4 &2849475821137394126
Transform:
  m_ObjectHideFlags: 0
  m_CorrespondingSourceObject: {fileID: 0}
  m_PrefabInstance: {fileID: 0}
  m_PrefabAsset: {fileID: 0}
  m_GameObject: {fileID: 2849475821137394112}
  m_LocalRotation: {x: 0, y: 0, z: 0, w: 1}
  m_LocalPosition: {x: 0, y: 0, z: 0}
  m_LocalScale: {x: 1, y: 1, z: 1}
  m_ConstrainProportionsScale: 0
  m_Children: []
  m_Father: {fileID: 0}
  m_RootOrder: 0
  m_LocalEulerAnglesHint: {x: 0, y: 0, z: 0}
--- !u!212 &2849475821137394127
SpriteRenderer:
  m_ObjectHideFlags: 0
  m_CorrespondingSourceObject: {fileID: 0}
  m_PrefabInstance: {fileID: 0}
  m_PrefabAsset: {fileID: 0}
  m_GameObject: {fileID: 2849475821137394112}
  m_Enabled: 1
  m_CastShadows: 0
  m_ReceiveShadows: 0
  m_DynamicOccludee: 1
  m_StaticShadowCaster: 0
  m_MotionVectors: 1
  m_LightProbeUsage: 1
  m_ReflectionProbeUsage: 1
  m_RayTracingMode: 0
  m_RayTraceProcedural: 0
  m_RenderingLayerMask: 1
  m_RendererPriority: 0
  m_Materials:
  - {fileID: 10754, guid: 0000000000000000f000000000000000, type: 0}
  m_StaticBatchInfo:
    firstSubMesh: 0
    subMeshCount: 0
  m_StaticBatchRoot: {fileID: 0}
  m_ProbeAnchor: {fileID: 0}
  m_LightProbeVolumeOverride: {fileID: 0}
  m_ScaleInLightmap: 1
  m_ReceiveGI: 1
  m_PreserveUVs: 0
  m_IgnoreNormalsForChartDetection: 0
  m_ImportantGI: 0
  m_StitchLightmapSeams: 1
  m_SelectedEditorRenderState: 0
  m_MinimumChartSize: 4
  m_AutoUVMaxDistance: 0.5
  m_AutoUVMaxAngle: 89
  m_LightmapParameters: {fileID: 0}
  m_SortingLayerID: 0
  m_SortingLayer: 0
  m_SortingOrder: 1
  m_Sprite: {fileID: 21300000, guid: 9731eae082186de439e5f70163f17d35, type: 3}
  m_Color: {r: 1, g: 1, b: 1, a: 1}
  m_FlipX: 0
  m_FlipY: 0
  m_DrawMode: 0
  m_Size: {x: 1.96, y: 2.64}
  m_AdaptiveModeThreshold: 0.5
  m_SpriteTileMode: 0
  m_WasSpriteAssigned: 1
  m_MaskInteraction: 0
  m_SpriteSortPoint: 0
--- !u!60 &3532131798456347819
PolygonCollider2D:
  m_ObjectHideFlags: 0
  m_CorrespondingSourceObject: {fileID: 0}
  m_PrefabInstance: {fileID: 0}
  m_PrefabAsset: {fileID: 0}
  m_GameObject: {fileID: 2849475821137394112}
  m_Enabled: 1
  m_Density: 1
  m_Material: {fileID: 0}
  m_IsTrigger: 0
  m_UsedByEffector: 0
  m_UsedByComposite: 0
  m_Offset: {x: 0, y: 0}
  m_SpriteTilingProperty:
    border: {x: 0, y: 0, z: 0, w: 0}
    pivot: {x: 0.5, y: 0.5}
    oldSize: {x: 1.96, y: 2.64}
    newSize: {x: 1.96, y: 2.64}
    adaptiveTilingThreshold: 0.5
    drawMode: 0
    adaptiveTiling: 0
  m_AutoTiling: 0
  m_Points:
    m_Paths:
    - - {x: 0.28, y: -1.3199999}
      - {x: 0.29999998, y: -1.27}
      - {x: 0.63, y: -1.26}
      - {x: 0.71999997, y: -1.16}
      - {x: 0.82, y: -1.24}
      - {x: 0.95, y: -1.29}
      - {x: 0.97999996, y: -1.28}
      - {x: 0.97999996, y: -1.05}
      - {x: 0.78999996, y: -0.87}
      - {x: 0.75, y: -0.68}
      - {x: 0.53, y: -0.52}
      - {x: 0.52, y: -0.45}
      - {x: 0.51, y: -0.42}
      - {x: 0.39999998, y: -0.44}
      - {x: 0.39999998, y: -0.61}
      - {x: 0.32, y: -0.59}
      - {x: 0.35, y: -0.22}
      - {x: 0.29, y: 0.03}
      - {x: 0.25, y: 0.14999999}
      - {x: 0.22, y: 0.38}
      - {x: 0.14, y: 0.48999998}
      - {x: 0.13, y: 0.75}
      - {x: 0.19999999, y: 0.74}
      - {x: 0.22999999, y: 1.02}
      - {x: 0.11, y: 1.13}
      - {x: 0.04, y: 1.31}
      - {x: 0.02, y: 1.3199999}
      - {x: -0.02, y: 1.3199999}
      - {x: -0.049999997, y: 1.31}
      - {x: -0.11, y: 1.14}
      - {x: -0.21, y: 1.02}
      - {x: -0.21, y: 0.77}
      - {x: -0.14, y: 0.74}
      - {x: -0.14, y: 0.48999998}
      - {x: -0.22, y: 0.38}
      - {x: -0.28, y: 0.02}
      - {x: -0.34, y: -0.22}
      - {x: -0.34, y: -0.38}
      - {x: -0.39999998, y: -0.59999996}
      - {x: -0.39999998, y: -0.44}
      - {x: -0.51, y: -0.41}
      - {x: -0.53999996, y: -0.52}
      - {x: -0.71, y: -0.65999997}
      - {x: -0.74, y: -0.69}
      - {x: -0.74, y: -0.84}
      - {x: -0.97999996, y: -1.06}
      - {x: -0.97999996, y: -1.29}
      - {x: -0.96, y: -1.3}
      - {x: -0.71999997, y: -1.1899999}
      - {x: -0.62, y: -1.25}
      - {x: -0.32999998, y: -1.25}
      - {x: -0.28, y: -1.3199999}
      - {x: -0.19, y: -1.3199999}
      - {x: 0.08, y: -1.25}
      - {x: 0.12, y: -1.29}
      - {x: 0.19, y: -1.3199999}
    - - {x: -0.29, y: -0.78999996}
      - {x: -0.22999999, y: -0.84}
      - {x: -0.22, y: -0.83}
      - {x: -0.28, y: -0.82}
    - - {x: 0.29, y: -0.78999996}
      - {x: 0.28, y: -0.82}
      - {x: 0.22, y: -0.83}
      - {x: 0.22999999, y: -0.84}
--- !u!50 &7259175983031283389
Rigidbody2D:
  serializedVersion: 4
  m_ObjectHideFlags: 0
  m_CorrespondingSourceObject: {fileID: 0}
  m_PrefabInstance: {fileID: 0}
  m_PrefabAsset: {fileID: 0}
  m_GameObject: {fileID: 2849475821137394112}
  m_BodyType: 0
  m_Simulated: 1
  m_UseFullKinematicContacts: 0
  m_UseAutoMass: 0
  m_Mass: 1
  m_LinearDrag: 0
  m_AngularDrag: 0.05
  m_GravityScale: 0
  m_Material: {fileID: 0}
  m_Interpolate: 0
  m_SleepingMode: 1
  m_CollisionDetection: 0
  m_Constraints: 0
--- !u!114 &1299751003993500984
MonoBehaviour:
  m_ObjectHideFlags: 0
  m_CorrespondingSourceObject: {fileID: 0}
  m_PrefabInstance: {fileID: 0}
  m_PrefabAsset: {fileID: 0}
  m_GameObject: {fileID: 2849475821137394112}
  m_Enabled: 1
  m_EditorHideFlags: 0
  m_Script: {fileID: 11500000, guid: 9115fbbfa069ac745a235af126971722, type: 3}
  m_Name: 
  m_EditorClassIdentifier: 
  walkSpeed: 2
  damageAmount: 15
  movementSmoothing: 0.15
  deathParticles: {fileID: 8421682225886113493, guid: 8ab489b2a53e6e042b76be6b7274bb61, type: 3}
  health: 120
